5 Spatial analysis | Data Science for Economists and Other Animals
…
Let’s say that our goal is to provide a snapshot of Census rental estimates across different cities in the Pacific Northwest. We start by downloading tract-level rental data for Oregon and Washington using the tidycensus::get_acs() function. Note that you’ll need to look up the correct ID variable (in this case: “DP04_0134”).

rent = 
  tidycensus::get_acs(
    geography = "tract", variables = "DP04_0134",
    state = c("WA", "OR"), geometry = TRUE
    )
rent

#> Simple feature collection with 2292 features and 5 fields (with 10 geometries empty)
#> geometry type:  MULTIPOLYGON
#> dimension:      XY
#> bbox:           xmin: -124.7631 ymin: 41.99179 xmax: -116.4635 ymax: 49.00249
#> geographic CRS: NAD83
#> # A tibble: 2,292 x 6
#>    GEOID  NAME         variable estimate   moe                          geometry
#>    <chr>  <chr>        <chr>       <dbl> <dbl>                <MULTIPOLYGON [°]>
#>  1 53061… Census Trac… DP04_01…     1181   168 (((-122.2311 48.00875, -122.2288…
#>  2 53033… Census Trac… DP04_01…     1208    97 (((-122.3551 47.52103, -122.3551…
#>  3 53077… Census Trac… DP04_01…      845   208 (((-120.9789 46.66908, -120.9792…
#>  4 53033… Census Trac… DP04_01…     1727   112 (((-122.3555 47.65542, -122.3555…
#>  5 53027… Census Trac… DP04_01…      727   147 (((-123.7275 47.07135, -123.7264…
#>  6 53061… Census Trac… DP04_01…     2065   331 (((-122.1409 48.06446, -122.1402…
#>  7 53033… Census Trac… DP04_01…     1333   142 (((-122.3551 47.50711, -122.3551…
#>  8 53077… Census Trac… DP04_01…     1290   155 (((-120.5724 46.59989, -120.5619…
#>  9 53011… Census Trac… DP04_01…     1272    62 (((-122.5589 45.62102, -122.5548…
#> 10 53021… Census Trac… DP04_01…      550   189 (((-119.0936 46.28581, -119.0934…
#> # … with 2,282 more rows
…
Now we do a spatial join on our two data sets using the sf::st_join() function.

or_rent = 
  st_join(
    rent, 
    or_metros, 
    join = st_within, left = FALSE
    ) 
or_rent
#> Simple feature collection with 595 features and 6 fields
#> geometry type:  MULTIPOLYGON
#> dimension:      XY
#> bbox:           xmin: -124.1587 ymin: 43.43739 xmax: -121.5144 ymax: 46.38863
#> geographic CRS: NAD83
#> # A tibble: 595 x 7
#>    GEOID  NAME   variable estimate   moe                    geometry metro_name 
#>  * <chr>  <chr>  <chr>       <dbl> <dbl>          <MULTIPOLYGON [°]> <chr>      
#>  1 53011… Censu… DP04_01…     1272    62 (((-122.5589 45.62102, -12… Portland-V…
#>  2 53011… Censu… DP04_01…     1185   112 (((-122.5528 45.69343, -12… Portland-V…
#>  3 53011… Censu… DP04_01…      866    64 (((-122.6143 45.63259, -12… Portland-V…
#>  4 53011… Censu… DP04_01…     1268    62 (((-122.5282 45.60814, -12… Portland-V…
#>  5 53011… Censu… DP04_01…     1268   267 (((-122.6002 45.78026, -12… Portland-V…
#>  6 53011… Censu… DP04_01…     1274   107 (((-122.5603 45.66535, -12… Portland-V…
#>  7 53011… Censu… DP04_01…     1092    77 (((-122.3562 45.57666, -12… Portland-V…
#>  8 53011… Censu… DP04_01…     1427   106 (((-122.6576 45.69122, -12… Portland-V…
#>  9 53011… Censu… DP04_01…     1148   132 (((-122.667 45.6664, -122.… Portland-V…
#> 10 53011… Censu… DP04_01…     1074    76 (((-122.6716 45.62722, -12… Portland-V…
#> # … with 585 more rows
…
